{
    "result": "success",
    "data": {
        "OrderId": "80E90W",
        "IsNIN": False,
        "StopCount": 2,
        "DeliverySpeed": "Within Next Hour",
        "Distance": 572976,
        "ReimbMethod": "Venmo",
        "Created": "Jan 2nd, 2018 11:19:00 PM",
        "Profit": 1320.136
    }
}
